[
  {
    "Class": "Helicopter",
    "LitresPerHour": 70,
    "Models": [
      "Polmav",
      "Annihilator",
      "Buzzard",
      "Buzzard2",
      "Cargobob",
      "Cargobob2",
      "Cargobob3",
      "Cargobob4",
      "Frogger",
      "Frogger2",
      "Maverick",
      "Savage",
      "Skylift",
      "Supervolito",
      "Supervolito2",
      "Swift",
      "Swift2",
      "Valkyrie",
      "Valkyrie2",
      "Volatus",
      "Akula",
      "Hunter",
      "Havok",
      "FDHAWK",
      "SRU2",
      "SRU3",
      "SOHELI",
      "PDHELI"
    ]
  },
  {
    "Class": "SingleProp",
    "LitresPerHour": 60,
    "Models": [ "Dodo", "Duster", "Mammatus", "alphaz1", "howard", "starling", "nokota", "seabreeze", "microlight", "mallard", "ultralight" ]
  },
  {
    "Class": "DualProp",
    "LitresPerHour": 100,
    "Models": [ "Cuban800", "pyro" ]
  },
  {
    "Class": "Turboprop",
    "LitresPerHour": 200,
    "Models": [ "Stunt", "Velum", "Velum2", "mogul", "rogue", "tula" ]
  },
  {
    "Class": "SmallJet",
    "LitresPerHour": 1050,
    "Models": [ "Besra", "Shamal", "molotok", "avenger" ]
  },
  {
    "Class": "LargeJet",
    "LitresPerHour": 1500,
    "Models": [ "CargoPlane", "Hydra", "Jet", "Titan", "Miljet", "Nimbus", "Luxor", "Luxor2", "bombushka", "volatol" ]
  }
]
